…
2. JOINING THE DATA

In the case of this data, the dataset for each species has the same variables. I purposely named the variables the same thing for each species so that they could eventually be stacked. They could be joined with the common variable of plot, but this would lead to duplicated rows and trouble with plotting in the future. For the sake of our analyses and figures, stacking the data using bind_rows was the best choice to join ACERRU and QUERRU data. The ACERRU dataframe had 15,236 observations of 8 variables, and the QUERRU dataframe had 18,612 observations of the same 8 variables. After the dataframes were stacked, the final dataframe, AQ_Joined has 33,848 observations of the same 8 variables. No rows of data were dropped during the join because they are all vital to the data to calculate summary statistics and plots. AQ_Joined will be used for the remainder of the analyses, except for the correlation matrix where I will do a full_join to the data. 

# bind rows together by stacking them:
AQ_Joined <- bind_rows(QUERRU_project, ACERRU_project) %>% rename(Full.Match = Full_Matches)
AQ_Joined

## # A tibble: 33,848 x 8
##    Name     Molecular.Weight RT..min. Species SampleID   Plot    Area Full.Match
##    <fct>               <dbl>    <dbl> <chr>   <chr>      <chr>  <dbl>      <int>
##  1 Bis(met…             386.     12.0 QUERRU  Area..SB0… SB    1.67e9          4
##  2 Bis(met…             386.     12.0 QUERRU  Area..SB0… SB    1.78e9          4
##  3 Bis(met…             386.     12.0 QUERRU  Area..SB0… SB    1.34e9          4
##  4 Bis(met…             386.     12.0 QUERRU  Area..SB0… SB    1.52e9          4
##  5 Bis(met…             386.     12.0 QUERRU  Area..SB0… SB    1.15e9          4
##  6 Bis(met…             386.     12.0 QUERRU  Area..SB0… SB    1.39e9          4
##  7 Bis(met…             386.     12.0 QUERRU  Area..SB0… SB    1.73e9          4
##  8 Bis(met…             386.     12.0 QUERRU  Area..SB0… SB    1.10e9          4
##  9 Bis(met…             386.     12.0 QUERRU  Area..SB0… SB    1.57e9          4
## 10 Bis(met…             386.     12.0 QUERRU  Area..SBP… SB    1.48e9          4
## # … with 33,838 more rows
…
5. DIMENSIONALITY REDUCTION

# this line was giving the cluster code troubles and the name
# needed to be changed to a better format
AQ_Joined <- AQ_Joined %>% mutate(Name = str_replace(Name, "3<df>-Androstanediol", 
    "Androstanediol"))

# Created a kmeans for 3 clusters as a prediction:
library(cluster)
clust_dat <- AQ_Joined %>% ungroup() %>% dplyr::select_if(is.numeric)
clust_dat

## # A tibble: 33,848 x 4
##    Molecular.Weight RT..min.        Area Full.Match
##               <dbl>    <dbl>       <dbl>      <int>
##  1             386.     12.0 1667380538.          4
##  2             386.     12.0 1780540427.          4
##  3             386.     12.0 1341439436.          4
##  4             386.     12.0 1520274599.          4
##  5             386.     12.0 1146859589.          4
##  6             386.     12.0 1386355736.          4
##  7             386.     12.0 1726770446.          4
##  8             386.     12.0 1104149542.          4
##  9             386.     12.0 1571800011.          4
## 10             386.     12.0 1484915548.          4
## # … with 33,838 more rows
…
